EESchema Schematic File Version 4
EELAYER 30 0
EELAYER END
$Descr A4 11693 8268
encoding utf-8
Sheet 1 1
Title "Scale Model Traffic Ligth (example)"
Date "2021-09-26"
Rev "0.0"
Comp ""
Comment1 "MIT License"
Comment2 ""
Comment3 ""
Comment4 ""
$EndDescr
$Comp
L 4xxx:HEF4093B U1
U 4 1 61510649
P 2550 7100
F 0 "U1" H 2550 7425 50  0000 C CNN
F 1 "HEF4093B" H 2550 7334 50  0000 C CNN
F 2 "Package_SO:SOIC-14_3.9x8.7mm_P1.27mm" H 2550 7100 50  0001 C CNN
F 3 "https://assets.nexperia.com/documents/data-sheet/HEF4093B.pdf" H 2550 7100 50  0001 C CNN
	4    2550 7100
	1    0    0    -1  
$EndComp
$Comp
L 4xxx:HEF4093B U1
U 5 1 61512D68
P 4450 1500
F 0 "U1" H 4680 1546 50  0000 L CNN
F 1 "HEF4093B" H 4680 1455 50  0000 L CNN
F 2 "Package_SO:SOIC-14_3.9x8.7mm_P1.27mm" H 4450 1500 50  0001 C CNN
F 3 "https://assets.nexperia.com/documents/data-sheet/HEF4093B.pdf" H 4450 1500 50  0001 C CNN
	5    4450 1500
	1    0    0    -1  
$EndComp
NoConn ~ 2850 7100
$Comp
L power:GND #PWR03
U 1 1 6152ED77
P 6600 2250
F 0 "#PWR03" H 6600 2000 50  0001 C CNN
F 1 "GND" H 6605 2077 50  0000 C CNN
F 2 "" H 6600 2250 50  0001 C CNN
F 3 "" H 6600 2250 50  0001 C CNN
	1    6600 2250
	1    0    0    -1  
$EndComp
Wire Wire Line
	4450 2000 4450 2150
Wire Wire Line
	6600 2150 6600 2250
$Comp
L Connector:Conn_01x02_Female J1
U 1 1 61542402
P 1650 1600
F 0 "J1" H 1542 1275 50  0000 C CNN
F 1 "MainPowerConnector" H 1542 1366 50  0000 C CNN
F 2 "Connector_PinSocket_2.54mm:PinSocket_1x02_P2.54mm_Horizontal" H 1650 1600 50  0001 C CNN
F 3 "~" H 1650 1600 50  0001 C CNN
	1    1650 1600
	-1   0    0    1   
$EndComp
$Comp
L Switch:SW_SPDT SW1
U 1 1 6154BF85
P 3050 1500
F 0 "SW1" H 3050 1175 50  0000 C CNN
F 1 "ON-OFF" H 3050 1266 50  0000 C CNN
F 2 "Connector_PinSocket_2.54mm:PinSocket_1x03_P2.54mm_Vertical" H 3050 1500 50  0001 C CNN
F 3 "~" H 3050 1500 50  0001 C CNN
	1    3050 1500
	1    0    0    1   
$EndComp
$Comp
L Device:C C2
U 1 1 6155AB12
P 3600 1500
F 0 "C2" H 3715 1546 50  0000 L CNN
F 1 "PWR100nF" H 3715 1455 50  0000 L CNN
F 2 "Capacitor_SMD:C_0805_2012Metric" H 3638 1350 50  0001 C CNN
F 3 "~" H 3600 1500 50  0001 C CNN
	1    3600 1500
	1    0    0    -1  
$EndComp
NoConn ~ 3250 1600
Wire Wire Line
	4450 2150 3600 2150
Wire Wire Line
	3600 2150 3600 1650
Connection ~ 4450 2150
Wire Wire Line
	3600 2150 2450 2150
Wire Wire Line
	2450 2150 2450 2000
Wire Wire Line
	2450 1600 1850 1600
Connection ~ 3600 2150
Wire Wire Line
	3250 1400 3250 850 
Wire Wire Line
	3250 850  3600 850 
Connection ~ 3600 850 
Wire Wire Line
	3600 850  3600 1350
Text Notes 2950 1800 0    50   ~ 0
Default Off\n
$Comp
L 4xxx:4001 U2
U 5 1 61561949
P 5300 1500
F 0 "U2" H 5530 1546 50  0000 L CNN
F 1 "4001" H 5530 1455 50  0000 L CNN
F 2 "Package_SO:SOIC-14_3.9x8.7mm_P1.27mm" H 5300 1500 50  0001 C CNN
F 3 "http://www.intersil.com/content/dam/Intersil/documents/cd40/cd4000bms-01bms-02bms-25bms.pdf" H 5300 1500 50  0001 C CNN
	5    5300 1500
	1    0    0    -1  
$EndComp
Wire Wire Line
	5300 1000 5300 850 
Wire Wire Line
	5300 2000 5300 2150
$Comp
L power:+9V #PWR04
U 1 1 615AA0B4
P 2800 700
F 0 "#PWR04" H 2800 550 50  0001 C CNN
F 1 "+9V" H 2815 873 50  0000 C CNN
F 2 "" H 2800 700 50  0001 C CNN
F 3 "" H 2800 700 50  0001 C CNN
	1    2800 700 
	1    0    0    -1  
$EndComp
Wire Wire Line
	2800 700  2800 850 
$Comp
L power:PWR_FLAG #FLG01
U 1 1 615AC644
P 2750 850
F 0 "#FLG01" H 2750 925 50  0001 C CNN
F 1 "PWR_FLAG" V 2750 977 50  0000 L CNN
F 2 "" H 2750 850 50  0001 C CNN
F 3 "~" H 2750 850 50  0001 C CNN
	1    2750 850 
	0    -1   -1   0   
$EndComp
Wire Wire Line
	2750 850  2800 850 
$Comp
L power:PWR_FLAG #FLG02
U 1 1 615AD32E
P 2400 2000
F 0 "#FLG02" H 2400 2075 50  0001 C CNN
F 1 "PWR_FLAG" V 2400 2127 50  0000 L CNN
F 2 "" H 2400 2000 50  0001 C CNN
F 3 "~" H 2400 2000 50  0001 C CNN
	1    2400 2000
	0    -1   -1   0   
$EndComp
Wire Wire Line
	2400 2000 2450 2000
Connection ~ 2450 2000
Wire Wire Line
	2450 2000 2450 1600
$Comp
L power:GND #PWR05
U 1 1 615AEA46
P 2150 7300
F 0 "#PWR05" H 2150 7050 50  0001 C CNN
F 1 "GND" H 2155 7127 50  0000 C CNN
F 2 "" H 2150 7300 50  0001 C CNN
F 3 "" H 2150 7300 50  0001 C CNN
	1    2150 7300
	1    0    0    -1  
$EndComp
Wire Wire Line
	2250 7000 2150 7000
Wire Wire Line
	2150 7000 2150 7200
Wire Wire Line
	2250 7200 2150 7200
Connection ~ 2150 7200
Wire Wire Line
	2150 7200 2150 7300
Text Notes 1650 7200 0    50   ~ 0
Useless\nLogical\ndoors
Wire Wire Line
	4750 7200 4650 7200
Wire Wire Line
	3400 7000 3400 7200
Wire Wire Line
	3500 7000 3400 7000
Wire Wire Line
	3400 7200 3400 7300
Connection ~ 3400 7200
Wire Wire Line
	3500 7200 3400 7200
Wire Wire Line
	4650 7000 4650 7200
Wire Wire Line
	4750 7000 4650 7000
$Comp
L power:GND #PWR06
U 1 1 615C32AB
P 3400 7300
F 0 "#PWR06" H 3400 7050 50  0001 C CNN
F 1 "GND" H 3405 7127 50  0000 C CNN
F 2 "" H 3400 7300 50  0001 C CNN
F 3 "" H 3400 7300 50  0001 C CNN
	1    3400 7300
	1    0    0    -1  
$EndComp
NoConn ~ 4100 7100
NoConn ~ 5350 7100
$Comp
L 4xxx:4001 U2
U 4 1 615BEEAF
P 3800 7100
F 0 "U2" H 3800 7425 50  0000 C CNN
F 1 "4001" H 3800 7334 50  0000 C CNN
F 2 "Package_SO:SOIC-14_3.9x8.7mm_P1.27mm" H 3800 7100 50  0001 C CNN
F 3 "http://www.intersil.com/content/dam/Intersil/documents/cd40/cd4000bms-01bms-02bms-25bms.pdf" H 3800 7100 50  0001 C CNN
	4    3800 7100
	1    0    0    -1  
$EndComp
$Comp
L 4xxx:4001 U2
U 1 1 615B5FA5
P 5050 7100
F 0 "U2" H 5050 7425 50  0000 C CNN
F 1 "4001" H 5050 7334 50  0000 C CNN
F 2 "Package_SO:SOIC-14_3.9x8.7mm_P1.27mm" H 5050 7100 50  0001 C CNN
F 3 "http://www.intersil.com/content/dam/Intersil/documents/cd40/cd4000bms-01bms-02bms-25bms.pdf" H 5050 7100 50  0001 C CNN
	1    5050 7100
	1    0    0    -1  
$EndComp
Wire Wire Line
	6150 1100 6150 850 
Wire Wire Line
	6150 850  5300 850 
Connection ~ 5300 850 
Wire Wire Line
	6150 1900 6150 2150
Wire Wire Line
	6150 2150 5300 2150
Connection ~ 5300 2150
$Comp
L 4xxx:4027 U3
U 3 1 615E9F6C
P 6150 1500
F 0 "U3" H 6380 1546 50  0000 L CNN
F 1 "4027" H 6380 1455 50  0000 L CNN
F 2 "Package_SO:SOIC-16_3.9x9.9mm_P1.27mm" H 6150 1500 50  0001 C CNN
F 3 "http://www.intersil.com/content/dam/Intersil/documents/cd40/cd4027bms.pdf" H 6150 1500 50  0001 C CNN
	3    6150 1500
	1    0    0    -1  
$EndComp
$Comp
L 4xxx:4027 U4
U 3 1 615F0EBA
P 7000 1500
F 0 "U4" H 7230 1546 50  0000 L CNN
F 1 "4027" H 7230 1455 50  0000 L CNN
F 2 "Package_SO:SOIC-16_3.9x9.9mm_P1.27mm" H 7000 1500 50  0001 C CNN
F 3 "http://www.intersil.com/content/dam/Intersil/documents/cd40/cd4027bms.pdf" H 7000 1500 50  0001 C CNN
	3    7000 1500
	1    0    0    -1  
$EndComp
Wire Wire Line
	7000 850  6150 850 
Connection ~ 6150 850 
Wire Wire Line
	7000 1900 7000 2150
Wire Wire Line
	7000 2150 6600 2150
Connection ~ 6150 2150
$Comp
L 4xxx:4001 U2
U 3 1 615BCDBE
P 6700 4000
F 0 "U2" H 6700 4325 50  0000 C CNN
F 1 "4001" H 6700 4234 50  0000 C CNN
F 2 "Package_SO:SOIC-14_3.9x8.7mm_P1.27mm" H 6700 4000 50  0001 C CNN
F 3 "http://www.intersil.com/content/dam/Intersil/documents/cd40/cd4000bms-01bms-02bms-25bms.pdf" H 6700 4000 50  0001 C CNN
	3    6700 4000
	1    0    0    -1  
$EndComp
$Comp
L 4xxx:4001 U2
U 2 1 615BAD47
P 10100 4000
F 0 "U2" H 10100 4325 50  0000 C CNN
F 1 "4001" H 10100 4234 50  0000 C CNN
F 2 "Package_SO:SOIC-14_3.9x8.7mm_P1.27mm" H 10100 4000 50  0001 C CNN
F 3 "http://www.intersil.com/content/dam/Intersil/documents/cd40/cd4000bms-01bms-02bms-25bms.pdf" H 10100 4000 50  0001 C CNN
	2    10100 4000
	1    0    0    -1  
$EndComp
$Comp
L 4xxx:HEF4093B U1
U 3 1 6150EBE1
P 7800 3900
F 0 "U1" H 7800 4225 50  0000 C CNN
F 1 "HEF4093B" H 7800 4134 50  0000 C CNN
F 2 "Package_SO:SOIC-14_3.9x8.7mm_P1.27mm" H 7800 3900 50  0001 C CNN
F 3 "https://assets.nexperia.com/documents/data-sheet/HEF4093B.pdf" H 7800 3900 50  0001 C CNN
	3    7800 3900
	1    0    0    -1  
$EndComp
$Comp
L 4xxx:HEF4093B U1
U 2 1 6150C4A9
P 8600 3900
F 0 "U1" H 8600 4225 50  0000 C CNN
F 1 "HEF4093B" H 8600 4134 50  0000 C CNN
F 2 "Package_SO:SOIC-14_3.9x8.7mm_P1.27mm" H 8600 3900 50  0001 C CNN
F 3 "https://assets.nexperia.com/documents/data-sheet/HEF4093B.pdf" H 8600 3900 50  0001 C CNN
	2    8600 3900
	1    0    0    -1  
$EndComp
Wire Wire Line
	9500 2100 9500 2250
$Comp
L power:GND #PWR02
U 1 1 615234DF
P 9500 2250
F 0 "#PWR02" H 9500 2000 50  0001 C CNN
F 1 "GND" H 9505 2077 50  0000 C CNN
F 2 "" H 9500 2250 50  0001 C CNN
F 3 "" H 9500 2250 50  0001 C CNN
	1    9500 2250
	1    0    0    -1  
$EndComp
Wire Wire Line
	9500 1150 9650 1150
Wire Wire Line
	9500 850  9500 1150
$Comp
L power:+9V #PWR01
U 1 1 61522709
P 9500 850
F 0 "#PWR01" H 9500 700 50  0001 C CNN
F 1 "+9V" H 9515 1023 50  0000 C CNN
F 2 "" H 9500 850 50  0001 C CNN
F 3 "" H 9500 850 50  0001 C CNN
	1    9500 850 
	1    0    0    -1  
$EndComp
Wire Wire Line
	10400 1250 10250 1250
Connection ~ 10400 1250
Wire Wire Line
	10400 1700 10400 1250
Wire Wire Line
	10100 1700 10400 1700
Connection ~ 9500 1700
Wire Wire Line
	9500 1350 9650 1350
Wire Wire Line
	9500 1700 9500 1350
Wire Wire Line
	9500 1700 9800 1700
Wire Wire Line
	10600 1250 10400 1250
Text GLabel 10600 1250 2    50   Input ~ 0
clock
$Comp
L Device:R_US R1
U 1 1 615169DE
P 9950 1700
F 0 "R1" V 9745 1700 50  0000 C CNN
F 1 "220k_clock" V 9836 1700 50  0000 C CNN
F 2 "Resistor_SMD:R_0805_2012Metric" V 9990 1690 50  0001 C CNN
F 3 "~" H 9950 1700 50  0001 C CNN
	1    9950 1700
	0    1    1    0   
$EndComp
$Comp
L 4xxx:HEF4093B U1
U 1 1 61507F0C
P 9950 1250
F 0 "U1" H 9950 933 50  0000 C CNN
F 1 "HEF4093B" H 9950 1024 50  0000 C CNN
F 2 "Package_SO:SOIC-14_3.9x8.7mm_P1.27mm" H 9950 1250 50  0001 C CNN
F 3 "https://assets.nexperia.com/documents/data-sheet/HEF4093B.pdf" H 9950 1250 50  0001 C CNN
	1    9950 1250
	1    0    0    1   
$EndComp
Text GLabel 6250 3900 0    50   Input ~ 0
U3B_clock
Wire Wire Line
	6400 3900 6250 3900
Text GLabel 6250 4100 0    50   Input ~ 0
U3OUT
Wire Wire Line
	6400 4100 6250 4100
Wire Wire Line
	7500 4000 7000 4000
Text GLabel 7350 3800 0    50   Input ~ 0
U4OUT
Wire Wire Line
	7350 3800 7500 3800
Wire Wire Line
	8300 3800 8200 3800
Wire Wire Line
	8200 3800 8200 3900
Wire Wire Line
	8200 3900 8100 3900
Wire Wire Line
	8200 3900 8200 4000
Wire Wire Line
	8200 4000 8300 4000
Connection ~ 8200 3900
Wire Wire Line
	9800 3900 9000 3900
Text GLabel 9650 4100 0    50   Input ~ 0
U4OUT2
Wire Wire Line
	9800 4100 9750 4100
$Comp
L Device:R_US R2
U 1 1 617C6EB3
P 10600 4400
F 0 "R2" H 10668 4446 50  0000 L CNN
F 1 "1kgreen" H 10668 4355 50  0000 L CNN
F 2 "Resistor_SMD:R_0805_2012Metric" V 10640 4390 50  0001 C CNN
F 3 "~" H 10600 4400 50  0001 C CNN
	1    10600 4400
	1    0    0    -1  
$EndComp
$Comp
L Device:LED D1
U 1 1 617C8FED
P 10600 4850
F 0 "D1" V 10639 4732 50  0000 R CNN
F 1 "green" V 10548 4732 50  0000 R CNN
F 2 "Connector_Wire:SolderWire-0.1sqmm_1x02_P3.6mm_D0.4mm_OD1mm" H 10600 4850 50  0001 C CNN
F 3 "~" H 10600 4850 50  0001 C CNN
	1    10600 4850
	0    -1   -1   0   
$EndComp
Wire Wire Line
	10600 4250 10600 4000
Wire Wire Line
	10600 4000 10400 4000
Wire Wire Line
	10600 4550 10600 4700
$Comp
L power:GND #PWR015
U 1 1 617D1BDB
P 10600 5150
F 0 "#PWR015" H 10600 4900 50  0001 C CNN
F 1 "GND" H 10605 4977 50  0000 C CNN
F 2 "" H 10600 5150 50  0001 C CNN
F 3 "" H 10600 5150 50  0001 C CNN
	1    10600 5150
	1    0    0    -1  
$EndComp
Wire Wire Line
	10600 5000 10600 5150
$Comp
L Device:R_US R3
U 1 1 617D6EC9
P 9750 4400
F 0 "R3" H 9818 4446 50  0000 L CNN
F 1 "1kred" H 9818 4355 50  0000 L CNN
F 2 "Resistor_SMD:R_0805_2012Metric" V 9790 4390 50  0001 C CNN
F 3 "~" H 9750 4400 50  0001 C CNN
	1    9750 4400
	1    0    0    -1  
$EndComp
$Comp
L Device:LED D2
U 1 1 617D8461
P 9750 4850
F 0 "D2" V 9789 4732 50  0000 R CNN
F 1 "red" V 9698 4732 50  0000 R CNN
F 2 "Connector_Wire:SolderWire-0.1sqmm_1x02_P3.6mm_D0.4mm_OD1mm" H 9750 4850 50  0001 C CNN
F 3 "~" H 9750 4850 50  0001 C CNN
	1    9750 4850
	0    -1   -1   0   
$EndComp
$Comp
L power:GND #PWR016
U 1 1 617D9D0F
P 9750 5150
F 0 "#PWR016" H 9750 4900 50  0001 C CNN
F 1 "GND" H 9755 4977 50  0000 C CNN
F 2 "" H 9750 5150 50  0001 C CNN
F 3 "" H 9750 5150 50  0001 C CNN
	1    9750 5150
	1    0    0    -1  
$EndComp
Wire Wire Line
	9750 4250 9750 4100
Connection ~ 9750 4100
Wire Wire Line
	9750 4100 9650 4100
Wire Wire Line
	9750 4550 9750 4700
$Comp
L Device:R_US R4
U 1 1 617E254C
P 9000 4400
F 0 "R4" H 9068 4446 50  0000 L CNN
F 1 "1kyellow" H 9068 4355 50  0000 L CNN
F 2 "Resistor_SMD:R_0805_2012Metric" V 9040 4390 50  0001 C CNN
F 3 "~" H 9000 4400 50  0001 C CNN
	1    9000 4400
	1    0    0    -1  
$EndComp
Wire Wire Line
	9750 5150 9750 5000
$Comp
L Device:LED D3
U 1 1 617E7972
P 9000 4850
F 0 "D3" V 9039 4732 50  0000 R CNN
F 1 "LED" V 8948 4732 50  0000 R CNN
F 2 "Connector_Wire:SolderWire-0.1sqmm_1x02_P3.6mm_D0.4mm_OD1mm" H 9000 4850 50  0001 C CNN
F 3 "~" H 9000 4850 50  0001 C CNN
	1    9000 4850
	0    -1   -1   0   
$EndComp
$Comp
L power:GND #PWR017
U 1 1 617E7E44
P 9000 5150
F 0 "#PWR017" H 9000 4900 50  0001 C CNN
F 1 "GND" H 9005 4977 50  0000 C CNN
F 2 "" H 9000 5150 50  0001 C CNN
F 3 "" H 9000 5150 50  0001 C CNN
	1    9000 5150
	1    0    0    -1  
$EndComp
Wire Wire Line
	9000 4700 9000 4550
Wire Wire Line
	9000 4250 9000 3900
Connection ~ 9000 3900
Wire Wire Line
	9000 3900 8900 3900
Wire Wire Line
	9000 5150 9000 5000
Connection ~ 700  4700
Wire Wire Line
	700  4550 700  4700
Wire Wire Line
	700  4700 700  4900
Wire Wire Line
	3950 4750 4100 4750
Text GLabel 4100 4750 2    50   Input ~ 0
U4OUT2
$Comp
L 4xxx:4027 U3
U 1 1 615E830B
P 1700 3500
F 0 "U3" H 1500 2900 50  0000 C CNN
F 1 "4027" H 1500 3000 50  0000 C CNN
F 2 "Package_SO:SOIC-16_3.9x9.9mm_P1.27mm" H 1700 3500 50  0001 C CNN
F 3 "http://www.intersil.com/content/dam/Intersil/documents/cd40/cd4027bms.pdf" H 1700 3500 50  0001 C CNN
	1    1700 3500
	1    0    0    1   
$EndComp
Text GLabel 1300 3500 0    50   Input ~ 0
clock
Wire Wire Line
	1300 3500 1400 3500
$Comp
L power:+9V #PWR07
U 1 1 61606BCB
P 950 3250
F 0 "#PWR07" H 950 3100 50  0001 C CNN
F 1 "+9V" H 965 3423 50  0000 C CNN
F 2 "" H 950 3250 50  0001 C CNN
F 3 "" H 950 3250 50  0001 C CNN
	1    950  3250
	1    0    0    -1  
$EndComp
Wire Wire Line
	950  3250 950  3400
Wire Wire Line
	950  3600 1400 3600
Wire Wire Line
	1400 3400 950  3400
Connection ~ 950  3400
Wire Wire Line
	950  3400 950  3600
$Comp
L power:GND #PWR08
U 1 1 6160BB40
P 1700 3900
F 0 "#PWR08" H 1700 3650 50  0001 C CNN
F 1 "GND" H 1705 3727 50  0000 C CNN
F 2 "" H 1700 3900 50  0001 C CNN
F 3 "" H 1700 3900 50  0001 C CNN
	1    1700 3900
	1    0    0    -1  
$EndComp
Wire Wire Line
	1700 3800 1700 3900
Text GLabel 2250 3400 2    50   Input ~ 0
U3B_clock
NoConn ~ 2000 3600
Wire Wire Line
	2000 3400 2250 3400
$Comp
L 4xxx:4027 U3
U 2 1 615E91F5
P 1650 4800
F 0 "U3" H 1450 4300 50  0000 C CNN
F 1 "4027" H 1450 4400 50  0000 C CNN
F 2 "Package_SO:SOIC-16_3.9x9.9mm_P1.27mm" H 1650 4800 50  0001 C CNN
F 3 "http://www.intersil.com/content/dam/Intersil/documents/cd40/cd4027bms.pdf" H 1650 4800 50  0001 C CNN
	2    1650 4800
	1    0    0    1   
$EndComp
Text GLabel 1250 4800 0    50   Input ~ 0
U3B_clock
Wire Wire Line
	1350 4800 1250 4800
$Comp
L power:GND #PWR010
U 1 1 61629CEF
P 1650 5200
F 0 "#PWR010" H 1650 4950 50  0001 C CNN
F 1 "GND" H 1655 5027 50  0000 C CNN
F 2 "" H 1650 5200 50  0001 C CNN
F 3 "" H 1650 5200 50  0001 C CNN
	1    1650 5200
	1    0    0    -1  
$EndComp
Wire Wire Line
	1650 5100 1650 5200
$Comp
L power:+9V #PWR09
U 1 1 6162B85D
P 700 4550
F 0 "#PWR09" H 700 4400 50  0001 C CNN
F 1 "+9V" H 715 4723 50  0000 C CNN
F 2 "" H 700 4550 50  0001 C CNN
F 3 "" H 700 4550 50  0001 C CNN
	1    700  4550
	1    0    0    -1  
$EndComp
Wire Wire Line
	700  4900 1350 4900
Wire Wire Line
	1350 4700 700  4700
NoConn ~ 1950 4900
Text GLabel 2100 4700 2    50   Input ~ 0
U3OUT
Wire Wire Line
	2100 4700 1950 4700
Wire Wire Line
	4000 3600 4250 3600
Text GLabel 4250 3600 2    50   Input ~ 0
U4OUT
Wire Wire Line
	4000 3400 4250 3400
Connection ~ 2700 4750
Wire Wire Line
	2700 4750 2700 4950
Wire Wire Line
	2700 4600 2700 4750
Wire Wire Line
	3350 4750 2700 4750
Wire Wire Line
	2700 4950 3350 4950
$Comp
L power:+9V #PWR011
U 1 1 6166124D
P 2700 4600
F 0 "#PWR011" H 2700 4450 50  0001 C CNN
F 1 "+9V" H 2715 4773 50  0000 C CNN
F 2 "" H 2700 4600 50  0001 C CNN
F 3 "" H 2700 4600 50  0001 C CNN
	1    2700 4600
	1    0    0    -1  
$EndComp
Wire Wire Line
	3350 4850 3250 4850
Text GLabel 3250 4850 0    50   Input ~ 0
U4B_clock
Text GLabel 4250 3400 2    50   Input ~ 0
U4B_clock
Wire Wire Line
	2950 3400 2950 3600
Connection ~ 2950 3400
Wire Wire Line
	3400 3400 2950 3400
Wire Wire Line
	2950 3600 3400 3600
Wire Wire Line
	2950 3250 2950 3400
$Comp
L power:+9V #PWR012
U 1 1 6165918A
P 2950 3250
F 0 "#PWR012" H 2950 3100 50  0001 C CNN
F 1 "+9V" H 2965 3423 50  0000 C CNN
F 2 "" H 2950 3250 50  0001 C CNN
F 3 "" H 2950 3250 50  0001 C CNN
	1    2950 3250
	1    0    0    -1  
$EndComp
Wire Wire Line
	3300 3500 3400 3500
Text GLabel 3300 3500 0    50   Input ~ 0
U3OUT
Wire Wire Line
	3700 3800 3700 3900
Wire Wire Line
	3650 5150 3650 5250
$Comp
L power:GND #PWR014
U 1 1 6164C791
P 3650 5250
F 0 "#PWR014" H 3650 5000 50  0001 C CNN
F 1 "GND" H 3655 5077 50  0000 C CNN
F 2 "" H 3650 5250 50  0001 C CNN
F 3 "" H 3650 5250 50  0001 C CNN
	1    3650 5250
	1    0    0    -1  
$EndComp
$Comp
L power:GND #PWR013
U 1 1 6164BDE8
P 3700 3900
F 0 "#PWR013" H 3700 3650 50  0001 C CNN
F 1 "GND" H 3705 3727 50  0000 C CNN
F 2 "" H 3700 3900 50  0001 C CNN
F 3 "" H 3700 3900 50  0001 C CNN
	1    3700 3900
	1    0    0    -1  
$EndComp
NoConn ~ 3950 4950
$Comp
L 4xxx:4027 U4
U 2 1 615EFFDA
P 3650 4850
F 0 "U4" H 3450 4300 50  0000 C CNN
F 1 "4027" H 3450 4400 50  0000 C CNN
F 2 "Package_SO:SOIC-16_3.9x9.9mm_P1.27mm" H 3650 4850 50  0001 C CNN
F 3 "http://www.intersil.com/content/dam/Intersil/documents/cd40/cd4027bms.pdf" H 3650 4850 50  0001 C CNN
	2    3650 4850
	1    0    0    1   
$EndComp
$Comp
L 4xxx:4027 U4
U 1 1 615ED77B
P 3700 3500
F 0 "U4" H 3500 2900 50  0000 C CNN
F 1 "4027" H 3500 3000 50  0000 C CNN
F 2 "Package_SO:SOIC-16_3.9x9.9mm_P1.27mm" H 3700 3500 50  0001 C CNN
F 3 "http://www.intersil.com/content/dam/Intersil/documents/cd40/cd4027bms.pdf" H 3700 3500 50  0001 C CNN
	1    3700 3500
	1    0    0    1   
$EndComp
Wire Wire Line
	9500 1700 9500 1800
$Comp
L power:GND #PWR0101
U 1 1 618E9CD4
P 4650 7300
F 0 "#PWR0101" H 4650 7050 50  0001 C CNN
F 1 "GND" H 4655 7127 50  0000 C CNN
F 2 "" H 4650 7300 50  0001 C CNN
F 3 "" H 4650 7300 50  0001 C CNN
	1    4650 7300
	1    0    0    -1  
$EndComp
Wire Wire Line
	4650 7300 4650 7200
Connection ~ 4650 7200
Wire Notes Line
	1000 6500 6500 6500
Text Notes 6000 4800 0    50   ~ 0
Led Driver\n
Text Notes 4500 4000 0    50   ~ 0
Binary counter\n
Wire Wire Line
	7000 1100 7000 850 
Wire Wire Line
	4450 1000 4450 850 
Wire Wire Line
	3600 850  4450 850 
Connection ~ 4450 850 
Wire Wire Line
	4450 850  5300 850 
Wire Wire Line
	1850 1500 2850 1500
Wire Wire Line
	3250 850  2800 850 
Connection ~ 3250 850 
Connection ~ 2800 850 
Wire Wire Line
	3700 3200 3700 3100
Wire Wire Line
	1700 3200 1700 3100
Wire Wire Line
	1650 4400 1650 4500
Wire Wire Line
	3650 4400 3650 4550
Wire Wire Line
	4100 4400 3650 4400
Text GLabel 4100 4400 2    50   Input ~ 0
U3-U4-R
Text GLabel 2100 4400 2    50   Input ~ 0
U3-U4-R
Wire Wire Line
	2100 4400 1650 4400
Wire Wire Line
	2250 3100 1700 3100
Wire Wire Line
	4250 3100 3700 3100
Text GLabel 4250 3100 2    50   Input ~ 0
U3-U4-R
Text GLabel 2250 3100 2    50   Input ~ 0
U3-U4-R
Text GLabel 2500 6250 0    50   Input ~ 0
U3-U4-R
$Comp
L Device:C_Small C3
U 1 1 619CE1D6
P 2100 6000
F 0 "C3" V 2350 5950 50  0000 L CNN
F 1 "100nf" V 2250 5850 50  0000 L CNN
F 2 "Capacitor_SMD:C_0805_2012Metric" H 2100 6000 50  0001 C CNN
F 3 "~" H 2100 6000 50  0001 C CNN
	1    2100 6000
	0    -1   -1   0   
$EndComp
$Comp
L Device:R_US R5
U 1 1 619D7C3C
P 2850 6000
F 0 "R5" V 3100 5950 50  0000 L CNN
F 1 "220k" V 3000 5900 50  0000 L CNN
F 2 "Resistor_SMD:R_0805_2012Metric" V 2890 5990 50  0001 C CNN
F 3 "~" H 2850 6000 50  0001 C CNN
	1    2850 6000
	0    -1   -1   0   
$EndComp
Wire Wire Line
	2500 6250 2500 6000
Connection ~ 2500 6000
Wire Wire Line
	2500 6000 2700 6000
Wire Wire Line
	2200 6000 2500 6000
Wire Wire Line
	2000 6000 1850 6000
Text Notes 2600 5850 2    50   ~ 0
reset\nlogical\nlevel
$Comp
L power:GND #PWR0102
U 1 1 61A4E08A
P 3250 6100
F 0 "#PWR0102" H 3250 5850 50  0001 C CNN
F 1 "GND" H 3255 5927 50  0000 C CNN
F 2 "" H 3250 6100 50  0001 C CNN
F 3 "" H 3250 6100 50  0001 C CNN
	1    3250 6100
	1    0    0    -1  
$EndComp
Wire Wire Line
	3000 6000 3250 6000
$Comp
L power:+9V #PWR0103
U 1 1 61A531B1
P 1850 5900
F 0 "#PWR0103" H 1850 5750 50  0001 C CNN
F 1 "+9V" H 1865 6073 50  0000 C CNN
F 2 "" H 1850 5900 50  0001 C CNN
F 3 "" H 1850 5900 50  0001 C CNN
	1    1850 5900
	1    0    0    -1  
$EndComp
Wire Wire Line
	3250 6000 3250 6100
Wire Wire Line
	1850 6000 1850 5900
Text Notes 7650 1550 0    50   ~ 0
Main\nPower\n
Text Notes 8750 1550 0    50   ~ 0
Main\nClock
Connection ~ 6600 2150
Wire Wire Line
	6600 2150 6150 2150
Wire Wire Line
	4450 2150 5300 2150
Wire Notes Line
	8500 750  8500 2700
Wire Notes Line
	5350 2700 5350 6500
Wire Notes Line
	1000 2700 10500 2700
$Comp
L SparkFun-Capacitors:10UF-POLAR-RADIAL-2.5MM-25V-20% C1
U 1 1 61AFE2CC
P 9500 1900
F 0 "C1" H 9628 1945 45  0000 L CNN
F 1 "10UF-POLAR-RADIAL-2.5MM-25V-20%" H 9628 1861 45  0000 L CNN
F 2 "Capacitors:CPOL-RADIAL-2.5MM-5MM" H 9500 2150 20  0001 C CNN
F 3 "" H 9500 1900 50  0001 C CNN
F 4 "CAP-08440" H 9628 1766 60  0000 L CNN "Field4"
	1    9500 1900
	1    0    0    -1  
$EndComp
$EndSCHEMATC
