%TF.GenerationSoftware,KiCad,Pcbnew,5.99.0+really5.1.10+dfsg1-1*%
%TF.CreationDate,2021-09-26T20:23:26+02:00*%
%TF.ProjectId,diy_smtle,6469795f-736d-4746-9c65-2e6b69636164,0.0*%
%TF.SameCoordinates,Original*%
%TF.FileFunction,Legend,Top*%
%TF.FilePolarity,Positive*%
%FSLAX46Y46*%
G04 Gerber Fmt 4.6, Leading zero omitted, Abs format (unit mm)*
G04 Created by KiCad (PCBNEW 5.99.0+really5.1.10+dfsg1-1) date 2021-09-26 20:23:26*
%MOMM*%
%LPD*%
G01*
G04 APERTURE LIST*
%ADD10C,0.203200*%
%ADD11C,0.120000*%
%ADD12C,0.127000*%
%ADD13C,0.150000*%
G04 APERTURE END LIST*
D10*
%TO.C,C1*%
X126959360Y-103505000D02*
G75*
G03*
X126959360Y-103505000I-2499360J0D01*
G01*
X122555000Y-102255320D02*
X123571000Y-102255320D01*
X123063000Y-101747320D02*
X123063000Y-102763320D01*
X123063000Y-104246680D02*
X123063000Y-105262680D01*
D11*
%TO.C,C2*%
X100230000Y-116146252D02*
X100230000Y-115623748D01*
X101700000Y-116146252D02*
X101700000Y-115623748D01*
%TO.C,C3*%
X122020000Y-108211252D02*
X122020000Y-107688748D01*
X120550000Y-108211252D02*
X120550000Y-107688748D01*
%TO.C,+9v*%
X128270000Y-111820000D02*
X127160000Y-111820000D01*
X127160000Y-111820000D02*
X127160000Y-110490000D01*
X138360000Y-111820000D02*
X138360000Y-106620000D01*
X138360000Y-106620000D02*
X129730000Y-106620000D01*
X129730000Y-111820000D02*
X129730000Y-106620000D01*
X138360000Y-111820000D02*
X129730000Y-111820000D01*
X138360000Y-109220000D02*
X129730000Y-109220000D01*
X129730000Y-107590000D02*
X129320000Y-107590000D01*
X129730000Y-108310000D02*
X129320000Y-108310000D01*
X129730000Y-110130000D02*
X129380000Y-110130000D01*
X129730000Y-110850000D02*
X129380000Y-110850000D01*
X138360000Y-109338100D02*
X129730000Y-109338100D01*
X138360000Y-109456195D02*
X129730000Y-109456195D01*
X138360000Y-109574290D02*
X129730000Y-109574290D01*
X138360000Y-109692385D02*
X129730000Y-109692385D01*
X138360000Y-109810480D02*
X129730000Y-109810480D01*
X138360000Y-109928575D02*
X129730000Y-109928575D01*
X138360000Y-110046670D02*
X129730000Y-110046670D01*
X138360000Y-110164765D02*
X129730000Y-110164765D01*
X138360000Y-110282860D02*
X129730000Y-110282860D01*
X138360000Y-110400955D02*
X129730000Y-110400955D01*
X138360000Y-110519050D02*
X129730000Y-110519050D01*
X138360000Y-110637145D02*
X129730000Y-110637145D01*
X138360000Y-110755240D02*
X129730000Y-110755240D01*
X138360000Y-110873335D02*
X129730000Y-110873335D01*
X138360000Y-110991430D02*
X129730000Y-110991430D01*
X138360000Y-111109525D02*
X129730000Y-111109525D01*
X138360000Y-111227620D02*
X129730000Y-111227620D01*
X138360000Y-111345715D02*
X129730000Y-111345715D01*
X138360000Y-111463810D02*
X129730000Y-111463810D01*
X138360000Y-111581905D02*
X129730000Y-111581905D01*
X138360000Y-111700000D02*
X129730000Y-111700000D01*
%TO.C,R1*%
X100230000Y-103374564D02*
X100230000Y-102920436D01*
X101700000Y-103374564D02*
X101700000Y-102920436D01*
%TO.C,R5*%
X101700000Y-120242064D02*
X101700000Y-119787936D01*
X100230000Y-120242064D02*
X100230000Y-119787936D01*
%TO.C,OnOff*%
X128965000Y-114935000D02*
X128965000Y-116265000D01*
X128965000Y-116265000D02*
X127635000Y-116265000D01*
X126365000Y-116265000D02*
X121225000Y-116265000D01*
X121225000Y-113605000D02*
X121225000Y-116265000D01*
X126365000Y-113605000D02*
X121225000Y-113605000D01*
X126365000Y-113605000D02*
X126365000Y-116265000D01*
%TO.C,4093*%
X106045000Y-101610000D02*
X102595000Y-101610000D01*
X106045000Y-101610000D02*
X107995000Y-101610000D01*
X106045000Y-110480000D02*
X104095000Y-110480000D01*
X106045000Y-110480000D02*
X107995000Y-110480000D01*
%TO.C,4001*%
X116205000Y-125085000D02*
X118155000Y-125085000D01*
X116205000Y-125085000D02*
X114255000Y-125085000D01*
X116205000Y-116215000D02*
X118155000Y-116215000D01*
X116205000Y-116215000D02*
X112755000Y-116215000D01*
%TO.C,4027*%
X116140000Y-101620000D02*
X112690000Y-101620000D01*
X116140000Y-101620000D02*
X118090000Y-101620000D01*
X116140000Y-111740000D02*
X114190000Y-111740000D01*
X116140000Y-111740000D02*
X118090000Y-111740000D01*
X106110000Y-114955000D02*
X104160000Y-114955000D01*
X106110000Y-114955000D02*
X108060000Y-114955000D01*
X106110000Y-125075000D02*
X104160000Y-125075000D01*
X106110000Y-125075000D02*
X109560000Y-125075000D01*
%TO.C,C1*%
D12*
X121629714Y-103606600D02*
X121658742Y-103635628D01*
X121687771Y-103722714D01*
X121687771Y-103780771D01*
X121658742Y-103867857D01*
X121600685Y-103925914D01*
X121542628Y-103954942D01*
X121426514Y-103983971D01*
X121339428Y-103983971D01*
X121223314Y-103954942D01*
X121165257Y-103925914D01*
X121107200Y-103867857D01*
X121078171Y-103780771D01*
X121078171Y-103722714D01*
X121107200Y-103635628D01*
X121136228Y-103606600D01*
X121687771Y-103026028D02*
X121687771Y-103374371D01*
X121687771Y-103200200D02*
X121078171Y-103200200D01*
X121165257Y-103258257D01*
X121223314Y-103316314D01*
X121252342Y-103374371D01*
X127910771Y-104328685D02*
X127910771Y-104677028D01*
X127910771Y-104502857D02*
X127301171Y-104502857D01*
X127388257Y-104560914D01*
X127446314Y-104618971D01*
X127475342Y-104677028D01*
X127301171Y-103951314D02*
X127301171Y-103893257D01*
X127330200Y-103835200D01*
X127359228Y-103806171D01*
X127417285Y-103777142D01*
X127533400Y-103748114D01*
X127678542Y-103748114D01*
X127794657Y-103777142D01*
X127852714Y-103806171D01*
X127881742Y-103835200D01*
X127910771Y-103893257D01*
X127910771Y-103951314D01*
X127881742Y-104009371D01*
X127852714Y-104038400D01*
X127794657Y-104067428D01*
X127678542Y-104096457D01*
X127533400Y-104096457D01*
X127417285Y-104067428D01*
X127359228Y-104038400D01*
X127330200Y-104009371D01*
X127301171Y-103951314D01*
X127301171Y-103486857D02*
X127794657Y-103486857D01*
X127852714Y-103457828D01*
X127881742Y-103428800D01*
X127910771Y-103370742D01*
X127910771Y-103254628D01*
X127881742Y-103196571D01*
X127852714Y-103167542D01*
X127794657Y-103138514D01*
X127301171Y-103138514D01*
X127591457Y-102645028D02*
X127591457Y-102848228D01*
X127910771Y-102848228D02*
X127301171Y-102848228D01*
X127301171Y-102557942D01*
%TO.C,C2*%
D13*
X99642142Y-116051666D02*
X99689761Y-116099285D01*
X99737380Y-116242142D01*
X99737380Y-116337380D01*
X99689761Y-116480238D01*
X99594523Y-116575476D01*
X99499285Y-116623095D01*
X99308809Y-116670714D01*
X99165952Y-116670714D01*
X98975476Y-116623095D01*
X98880238Y-116575476D01*
X98785000Y-116480238D01*
X98737380Y-116337380D01*
X98737380Y-116242142D01*
X98785000Y-116099285D01*
X98832619Y-116051666D01*
X98832619Y-115670714D02*
X98785000Y-115623095D01*
X98737380Y-115527857D01*
X98737380Y-115289761D01*
X98785000Y-115194523D01*
X98832619Y-115146904D01*
X98927857Y-115099285D01*
X99023095Y-115099285D01*
X99165952Y-115146904D01*
X99737380Y-115718333D01*
X99737380Y-115099285D01*
%TO.C,C3*%
X123547142Y-108116666D02*
X123594761Y-108164285D01*
X123642380Y-108307142D01*
X123642380Y-108402380D01*
X123594761Y-108545238D01*
X123499523Y-108640476D01*
X123404285Y-108688095D01*
X123213809Y-108735714D01*
X123070952Y-108735714D01*
X122880476Y-108688095D01*
X122785238Y-108640476D01*
X122690000Y-108545238D01*
X122642380Y-108402380D01*
X122642380Y-108307142D01*
X122690000Y-108164285D01*
X122737619Y-108116666D01*
X122642380Y-107783333D02*
X122642380Y-107164285D01*
X123023333Y-107497619D01*
X123023333Y-107354761D01*
X123070952Y-107259523D01*
X123118571Y-107211904D01*
X123213809Y-107164285D01*
X123451904Y-107164285D01*
X123547142Y-107211904D01*
X123594761Y-107259523D01*
X123642380Y-107354761D01*
X123642380Y-107640476D01*
X123594761Y-107735714D01*
X123547142Y-107783333D01*
%TO.C,D1*%
X129992380Y-121283095D02*
X128992380Y-121283095D01*
X128992380Y-121045000D01*
X129040000Y-120902142D01*
X129135238Y-120806904D01*
X129230476Y-120759285D01*
X129420952Y-120711666D01*
X129563809Y-120711666D01*
X129754285Y-120759285D01*
X129849523Y-120806904D01*
X129944761Y-120902142D01*
X129992380Y-121045000D01*
X129992380Y-121283095D01*
X129992380Y-119759285D02*
X129992380Y-120330714D01*
X129992380Y-120045000D02*
X128992380Y-120045000D01*
X129135238Y-120140238D01*
X129230476Y-120235476D01*
X129278095Y-120330714D01*
%TO.C,D2*%
X123642380Y-121283095D02*
X122642380Y-121283095D01*
X122642380Y-121045000D01*
X122690000Y-120902142D01*
X122785238Y-120806904D01*
X122880476Y-120759285D01*
X123070952Y-120711666D01*
X123213809Y-120711666D01*
X123404285Y-120759285D01*
X123499523Y-120806904D01*
X123594761Y-120902142D01*
X123642380Y-121045000D01*
X123642380Y-121283095D01*
X122737619Y-120330714D02*
X122690000Y-120283095D01*
X122642380Y-120187857D01*
X122642380Y-119949761D01*
X122690000Y-119854523D01*
X122737619Y-119806904D01*
X122832857Y-119759285D01*
X122928095Y-119759285D01*
X123070952Y-119806904D01*
X123642380Y-120378333D01*
X123642380Y-119759285D01*
%TO.C,D3*%
X126817380Y-121283095D02*
X125817380Y-121283095D01*
X125817380Y-121045000D01*
X125865000Y-120902142D01*
X125960238Y-120806904D01*
X126055476Y-120759285D01*
X126245952Y-120711666D01*
X126388809Y-120711666D01*
X126579285Y-120759285D01*
X126674523Y-120806904D01*
X126769761Y-120902142D01*
X126817380Y-121045000D01*
X126817380Y-121283095D01*
X125817380Y-120378333D02*
X125817380Y-119759285D01*
X126198333Y-120092619D01*
X126198333Y-119949761D01*
X126245952Y-119854523D01*
X126293571Y-119806904D01*
X126388809Y-119759285D01*
X126626904Y-119759285D01*
X126722142Y-119806904D01*
X126769761Y-119854523D01*
X126817380Y-119949761D01*
X126817380Y-120235476D01*
X126769761Y-120330714D01*
X126722142Y-120378333D01*
%TO.C,+9v*%
X126436428Y-109188095D02*
X126436428Y-108426190D01*
X126817380Y-108807142D02*
X126055476Y-108807142D01*
X126817380Y-107902380D02*
X126817380Y-107711904D01*
X126769761Y-107616666D01*
X126722142Y-107569047D01*
X126579285Y-107473809D01*
X126388809Y-107426190D01*
X126007857Y-107426190D01*
X125912619Y-107473809D01*
X125865000Y-107521428D01*
X125817380Y-107616666D01*
X125817380Y-107807142D01*
X125865000Y-107902380D01*
X125912619Y-107950000D01*
X126007857Y-107997619D01*
X126245952Y-107997619D01*
X126341190Y-107950000D01*
X126388809Y-107902380D01*
X126436428Y-107807142D01*
X126436428Y-107616666D01*
X126388809Y-107521428D01*
X126341190Y-107473809D01*
X126245952Y-107426190D01*
X126150714Y-107092857D02*
X126817380Y-106854761D01*
X126150714Y-106616666D01*
%TO.C,R1*%
X99767380Y-103314166D02*
X99291190Y-103647500D01*
X99767380Y-103885595D02*
X98767380Y-103885595D01*
X98767380Y-103504642D01*
X98815000Y-103409404D01*
X98862619Y-103361785D01*
X98957857Y-103314166D01*
X99100714Y-103314166D01*
X99195952Y-103361785D01*
X99243571Y-103409404D01*
X99291190Y-103504642D01*
X99291190Y-103885595D01*
X99767380Y-102361785D02*
X99767380Y-102933214D01*
X99767380Y-102647500D02*
X98767380Y-102647500D01*
X98910238Y-102742738D01*
X99005476Y-102837976D01*
X99053095Y-102933214D01*
%TO.C,R5*%
X99767380Y-120181666D02*
X99291190Y-120515000D01*
X99767380Y-120753095D02*
X98767380Y-120753095D01*
X98767380Y-120372142D01*
X98815000Y-120276904D01*
X98862619Y-120229285D01*
X98957857Y-120181666D01*
X99100714Y-120181666D01*
X99195952Y-120229285D01*
X99243571Y-120276904D01*
X99291190Y-120372142D01*
X99291190Y-120753095D01*
X98767380Y-119276904D02*
X98767380Y-119753095D01*
X99243571Y-119800714D01*
X99195952Y-119753095D01*
X99148333Y-119657857D01*
X99148333Y-119419761D01*
X99195952Y-119324523D01*
X99243571Y-119276904D01*
X99338809Y-119229285D01*
X99576904Y-119229285D01*
X99672142Y-119276904D01*
X99719761Y-119324523D01*
X99767380Y-119419761D01*
X99767380Y-119657857D01*
X99719761Y-119753095D01*
X99672142Y-119800714D01*
%TO.C,OnOff*%
X129627380Y-117212857D02*
X129627380Y-117022380D01*
X129675000Y-116927142D01*
X129770238Y-116831904D01*
X129960714Y-116784285D01*
X130294047Y-116784285D01*
X130484523Y-116831904D01*
X130579761Y-116927142D01*
X130627380Y-117022380D01*
X130627380Y-117212857D01*
X130579761Y-117308095D01*
X130484523Y-117403333D01*
X130294047Y-117450952D01*
X129960714Y-117450952D01*
X129770238Y-117403333D01*
X129675000Y-117308095D01*
X129627380Y-117212857D01*
X129960714Y-116355714D02*
X130627380Y-116355714D01*
X130055952Y-116355714D02*
X130008333Y-116308095D01*
X129960714Y-116212857D01*
X129960714Y-116070000D01*
X130008333Y-115974761D01*
X130103571Y-115927142D01*
X130627380Y-115927142D01*
X129627380Y-115260476D02*
X129627380Y-115070000D01*
X129675000Y-114974761D01*
X129770238Y-114879523D01*
X129960714Y-114831904D01*
X130294047Y-114831904D01*
X130484523Y-114879523D01*
X130579761Y-114974761D01*
X130627380Y-115070000D01*
X130627380Y-115260476D01*
X130579761Y-115355714D01*
X130484523Y-115450952D01*
X130294047Y-115498571D01*
X129960714Y-115498571D01*
X129770238Y-115450952D01*
X129675000Y-115355714D01*
X129627380Y-115260476D01*
X129960714Y-114546190D02*
X129960714Y-114165238D01*
X130627380Y-114403333D02*
X129770238Y-114403333D01*
X129675000Y-114355714D01*
X129627380Y-114260476D01*
X129627380Y-114165238D01*
X129960714Y-113974761D02*
X129960714Y-113593809D01*
X130627380Y-113831904D02*
X129770238Y-113831904D01*
X129675000Y-113784285D01*
X129627380Y-113689047D01*
X129627380Y-113593809D01*
%TO.C,4093*%
X100750714Y-111093095D02*
X101417380Y-111093095D01*
X100369761Y-111331190D02*
X101084047Y-111569285D01*
X101084047Y-110950238D01*
X100417380Y-110378809D02*
X100417380Y-110283571D01*
X100465000Y-110188333D01*
X100512619Y-110140714D01*
X100607857Y-110093095D01*
X100798333Y-110045476D01*
X101036428Y-110045476D01*
X101226904Y-110093095D01*
X101322142Y-110140714D01*
X101369761Y-110188333D01*
X101417380Y-110283571D01*
X101417380Y-110378809D01*
X101369761Y-110474047D01*
X101322142Y-110521666D01*
X101226904Y-110569285D01*
X101036428Y-110616904D01*
X100798333Y-110616904D01*
X100607857Y-110569285D01*
X100512619Y-110521666D01*
X100465000Y-110474047D01*
X100417380Y-110378809D01*
X101417380Y-109569285D02*
X101417380Y-109378809D01*
X101369761Y-109283571D01*
X101322142Y-109235952D01*
X101179285Y-109140714D01*
X100988809Y-109093095D01*
X100607857Y-109093095D01*
X100512619Y-109140714D01*
X100465000Y-109188333D01*
X100417380Y-109283571D01*
X100417380Y-109474047D01*
X100465000Y-109569285D01*
X100512619Y-109616904D01*
X100607857Y-109664523D01*
X100845952Y-109664523D01*
X100941190Y-109616904D01*
X100988809Y-109569285D01*
X101036428Y-109474047D01*
X101036428Y-109283571D01*
X100988809Y-109188333D01*
X100941190Y-109140714D01*
X100845952Y-109093095D01*
X100417380Y-108759761D02*
X100417380Y-108140714D01*
X100798333Y-108474047D01*
X100798333Y-108331190D01*
X100845952Y-108235952D01*
X100893571Y-108188333D01*
X100988809Y-108140714D01*
X101226904Y-108140714D01*
X101322142Y-108188333D01*
X101369761Y-108235952D01*
X101417380Y-108331190D01*
X101417380Y-108616904D01*
X101369761Y-108712142D01*
X101322142Y-108759761D01*
%TO.C,4001*%
X111545714Y-121888095D02*
X112212380Y-121888095D01*
X111164761Y-122126190D02*
X111879047Y-122364285D01*
X111879047Y-121745238D01*
X111212380Y-121173809D02*
X111212380Y-121078571D01*
X111260000Y-120983333D01*
X111307619Y-120935714D01*
X111402857Y-120888095D01*
X111593333Y-120840476D01*
X111831428Y-120840476D01*
X112021904Y-120888095D01*
X112117142Y-120935714D01*
X112164761Y-120983333D01*
X112212380Y-121078571D01*
X112212380Y-121173809D01*
X112164761Y-121269047D01*
X112117142Y-121316666D01*
X112021904Y-121364285D01*
X111831428Y-121411904D01*
X111593333Y-121411904D01*
X111402857Y-121364285D01*
X111307619Y-121316666D01*
X111260000Y-121269047D01*
X111212380Y-121173809D01*
X111212380Y-120221428D02*
X111212380Y-120126190D01*
X111260000Y-120030952D01*
X111307619Y-119983333D01*
X111402857Y-119935714D01*
X111593333Y-119888095D01*
X111831428Y-119888095D01*
X112021904Y-119935714D01*
X112117142Y-119983333D01*
X112164761Y-120030952D01*
X112212380Y-120126190D01*
X112212380Y-120221428D01*
X112164761Y-120316666D01*
X112117142Y-120364285D01*
X112021904Y-120411904D01*
X111831428Y-120459523D01*
X111593333Y-120459523D01*
X111402857Y-120411904D01*
X111307619Y-120364285D01*
X111260000Y-120316666D01*
X111212380Y-120221428D01*
X112212380Y-118935714D02*
X112212380Y-119507142D01*
X112212380Y-119221428D02*
X111212380Y-119221428D01*
X111355238Y-119316666D01*
X111450476Y-119411904D01*
X111498095Y-119507142D01*
%TO.C,4027*%
X111545714Y-109188095D02*
X112212380Y-109188095D01*
X111164761Y-109426190D02*
X111879047Y-109664285D01*
X111879047Y-109045238D01*
X111212380Y-108473809D02*
X111212380Y-108378571D01*
X111260000Y-108283333D01*
X111307619Y-108235714D01*
X111402857Y-108188095D01*
X111593333Y-108140476D01*
X111831428Y-108140476D01*
X112021904Y-108188095D01*
X112117142Y-108235714D01*
X112164761Y-108283333D01*
X112212380Y-108378571D01*
X112212380Y-108473809D01*
X112164761Y-108569047D01*
X112117142Y-108616666D01*
X112021904Y-108664285D01*
X111831428Y-108711904D01*
X111593333Y-108711904D01*
X111402857Y-108664285D01*
X111307619Y-108616666D01*
X111260000Y-108569047D01*
X111212380Y-108473809D01*
X111307619Y-107759523D02*
X111260000Y-107711904D01*
X111212380Y-107616666D01*
X111212380Y-107378571D01*
X111260000Y-107283333D01*
X111307619Y-107235714D01*
X111402857Y-107188095D01*
X111498095Y-107188095D01*
X111640952Y-107235714D01*
X112212380Y-107807142D01*
X112212380Y-107188095D01*
X111212380Y-106854761D02*
X111212380Y-106188095D01*
X112212380Y-106616666D01*
X100750714Y-125698095D02*
X101417380Y-125698095D01*
X100369761Y-125936190D02*
X101084047Y-126174285D01*
X101084047Y-125555238D01*
X100417380Y-124983809D02*
X100417380Y-124888571D01*
X100465000Y-124793333D01*
X100512619Y-124745714D01*
X100607857Y-124698095D01*
X100798333Y-124650476D01*
X101036428Y-124650476D01*
X101226904Y-124698095D01*
X101322142Y-124745714D01*
X101369761Y-124793333D01*
X101417380Y-124888571D01*
X101417380Y-124983809D01*
X101369761Y-125079047D01*
X101322142Y-125126666D01*
X101226904Y-125174285D01*
X101036428Y-125221904D01*
X100798333Y-125221904D01*
X100607857Y-125174285D01*
X100512619Y-125126666D01*
X100465000Y-125079047D01*
X100417380Y-124983809D01*
X100512619Y-124269523D02*
X100465000Y-124221904D01*
X100417380Y-124126666D01*
X100417380Y-123888571D01*
X100465000Y-123793333D01*
X100512619Y-123745714D01*
X100607857Y-123698095D01*
X100703095Y-123698095D01*
X100845952Y-123745714D01*
X101417380Y-124317142D01*
X101417380Y-123698095D01*
X100417380Y-123364761D02*
X100417380Y-122698095D01*
X101417380Y-123126666D01*
%TD*%
M02*
